[
  {
    "title": "Cruise 12",
    "description": "Lorem ipsum dolor sit amet, consectetur adipiscing elit. Nulla scelerisque et orci et fermentum. Morbi feugiat lorem nec enim facilisis, eu tempor nisi finibus. Nam finibus ex eu dolor pellentesque, eget efficitur tortor molestie. Suspendisse scelerisque lacinia lacus, at lacinia justo egestas eget",
    "days": 14,
    "inside": 12223,
    "outside": 13344,
    "balcony": 23445
  },
  {
    "title": "Cruise 21",
    "description": "Lorem ipsum dolor sit amet, consectetur adipiscing elit. Nulla scelerisque et orci et fermentum. Morbi feugiat lorem nec enim facilisis, eu tempor nisi finibus. Nam finibus ex eu dolor pellentesque, eget efficitur tortor molestie. Suspendisse scelerisque lacinia lacus, at lacinia justo egestas eget",
    "days": 14,
    "inside": 12223,
    "outside": 13344,
    "balcony": 23445
  },
  {
    "title": "Cruise 31",
    "description": "Lorem ipsum dolor sit amet, consectetur adipiscing elit. Nulla scelerisque et orci et fermentum. Morbi feugiat lorem nec enim facilisis, eu tempor nisi finibus. Nam finibus ex eu dolor pellentesque, eget efficitur tortor molestie. Suspendisse scelerisque lacinia lacus, at lacinia justo egestas eget",
    "days": 14,
    "inside": 12223,
    "outside": 13344,
    "balcony": 23445
  },
  {
    "title": "Cruise 4",
    "description": "Lorem ipsum dolor sit amet, consectetur adipiscing elit. Nulla scelerisque et orci et fermentum. Morbi feugiat lorem nec enim facilisis, eu tempor nisi finibus. Nam finibus ex eu dolor pellentesque, eget efficitur tortor molestie. Suspendisse scelerisque lacinia lacus, at lacinia justo egestas eget",
    "days": 14,
    "inside": 12223,
    "outside": 13344,
    "balcony": 23445
  },
  {
    "title": "Cruise 5",
    "description": "Lorem ipsum dolor sit amet, consectetur adipiscing elit. Nulla scelerisque et orci et fermentum. Morbi feugiat lorem nec enim facilisis, eu tempor nisi finibus. Nam finibus ex eu dolor pellentesque, eget efficitur tortor molestie. Suspendisse scelerisque lacinia lacus, at lacinia justo egestas eget",
    "days": 14,
    "inside": 12223,
    "outside": 13344,
    "balcony": 23445
  },
  {
    "title": "Cruise 6",
    "description": "Lorem ipsum dolor sit amet, consectetur adipiscing elit. Nulla scelerisque et orci et fermentum. Morbi feugiat lorem nec enim facilisis, eu tempor nisi finibus. Nam finibus ex eu dolor pellentesque, eget efficitur tortor molestie. Suspendisse scelerisque lacinia lacus, at lacinia justo egestas eget",
    "days": 14,
    "inside": 12223,
    "outside": 13344,
    "balcony": 23445
  },
  {
    "title": "Cruise 7",
    "description": "Lorem ipsum dolor sit amet, consectetur adipiscing elit. Nulla scelerisque et orci et fermentum. Morbi feugiat lorem nec enim facilisis, eu tempor nisi finibus. Nam finibus ex eu dolor pellentesque, eget efficitur tortor molestie. Suspendisse scelerisque lacinia lacus, at lacinia justo egestas eget",
    "days": 14,
    "inside": 12223,
    "outside": 13344,
    "balcony": 23445
  },
  {
    "title": "Cruise 8",
    "description": "Lorem ipsum dolor sit amet, consectetur adipiscing elit. Nulla scelerisque et orci et fermentum. Morbi feugiat lorem nec enim facilisis, eu tempor nisi finibus. Nam finibus ex eu dolor pellentesque, eget efficitur tortor molestie. Suspendisse scelerisque lacinia lacus, at lacinia justo egestas eget",
    "days": 14,
    "inside": 12223,
    "outside": 13344,
    "balcony": 23445
  },
  {
    "title": "Cruise 9",
    "description": "Lorem ipsum dolor sit amet, consectetur adipiscing elit. Nulla scelerisque et orci et fermentum. Morbi feugiat lorem nec enim facilisis, eu tempor nisi finibus. Nam finibus ex eu dolor pellentesque, eget efficitur tortor molestie. Suspendisse scelerisque lacinia lacus, at lacinia justo egestas eget",
    "days": 14,
    "inside": 12223,
    "outside": 13344,
    "balcony": 23445
  },
  {
    "title": "Cruise 10",
    "description": "Lorem ipsum dolor sit amet, consectetur adipiscing elit. Nulla scelerisque et orci et fermentum. Morbi feugiat lorem nec enim facilisis, eu tempor nisi finibus. Nam finibus ex eu dolor pellentesque, eget efficitur tortor molestie. Suspendisse scelerisque lacinia lacus, at lacinia justo egestas eget",
    "days": 14,
    "inside": 12223,
    "outside": 13344,
    "balcony": 23445
  },
  {
    "title": "Cruise 11",
    "description": "Lorem ipsum dolor sit amet, consectetur adipiscing elit. Nulla scelerisque et orci et fermentum. Morbi feugiat lorem nec enim facilisis, eu tempor nisi finibus. Nam finibus ex eu dolor pellentesque, eget efficitur tortor molestie. Suspendisse scelerisque lacinia lacus, at lacinia justo egestas eget",
    "days": 14,
    "inside": 12223,
    "outside": 13344,
    "balcony": 23445
  },
  {
    "title": "Cruise 12",
    "description": "Lorem ipsum dolor sit amet, consectetur adipiscing elit. Nulla scelerisque et orci et fermentum. Morbi feugiat lorem nec enim facilisis, eu tempor nisi finibus. Nam finibus ex eu dolor pellentesque, eget efficitur tortor molestie. Suspendisse scelerisque lacinia lacus, at lacinia justo egestas eget",
    "days": 14,
    "inside": 12223,
    "outside": 13344,
    "balcony": 23445
  },

  {
    "title": "Cruise 121",
    "description": "Lorem ipsum dolor sit amet, consectetur adipiscing elit. Nulla scelerisque et orci et fermentum. Morbi feugiat lorem nec enim facilisis, eu tempor nisi finibus. Nam finibus ex eu dolor pellentesque, eget efficitur tortor molestie. Suspendisse scelerisque lacinia lacus, at lacinia justo egestas eget",
    "days": 14,
    "inside": 12223,
    "outside": 13344,
    "balcony": 23445
  },

    {
    "title": "Cruise 1233",
    "description": "Lorem ipsum dolor sit amet, consectetur adipiscing elit. Nulla scelerisque et orci et fermentum. Morbi feugiat lorem nec enim facilisis, eu tempor nisi finibus. Nam finibus ex eu dolor pellentesque, eget efficitur tortor molestie. Suspendisse scelerisque lacinia lacus, at lacinia justo egestas eget",
    "days": 14,
    "inside": 12223,
    "outside": 13344,
    "balcony": 23445
  }


]